[{
    "gambar": "assets/img/spesial/spesial1.png",
    "nama": "Snack Bucket 2 Spicy&Sour",
    "harga": "90.000"
},
{
    "gambar": "assets/img/spesial/spesial2.png",
    "nama": "Winger Combo Spicy&sour",
    "harga": "50.000"
},
{
    "gambar": "assets/img/spesial/spesial3.png",
    "nama": "Fun Fries Spicy&Sour",
    "harga": "25.000"
},
{
    "gambar": "assets/img/spesial/spesial4.png",
    "nama": "Chicken Strips Spicy&Sour",
    "harga": "30.000"
},
{
    "gambar": "assets/img/spesial/spesial5.png",
    "nama": "Chicken Bucket Spicy&Sour",
    "harga": "60.000"

}
]